<?xml version="1.0" encoding="UTF-8"?>
<svg width="38px" height="38px" viewBox="0 0 38 38" version="1.1" xmlns="http://www.w3.org/2000/svg" xmlns:xlink="http://www.w3.org/1999/xlink">
    <!-- Generator: sketchtool 50.2 (55047) - http://www.bohemiancoding.com/sketch -->
    <title>D1DECF15-B5F7-4FB5-9A7F-D698749EC09D</title>
    <desc>Created with sketchtool.</desc>
    <defs></defs>
    <g id="wIreframes-v2" stroke="none" stroke-width="1" fill="none" fill-rule="evenodd" opacity="0.5">
        <g id="promo-edgwood-04" transform="translate(-1423.000000, -6262.000000)" fill="#9B9B9B">
            <g id="Group-13" transform="translate(1358.000000, 6262.000000)">
                <g id="Group-3" transform="translate(65.000000, 0.000000)">
                    <path d="M14.8700143,24.1025308 C13.5696503,24.0193434 12.4622254,23.5480188 11.5677497,22.6472998 C11.0897583,22.1659531 10.7387686,21.6048541 10.5144113,20.9312803 C11.2189751,21.0380534 11.8855861,21.0221172 12.5781144,20.8575484 C10.232571,20.1767856 8.9872902,18.7015457 8.85537831,16.3728291 C9.51615611,16.65607 10.1819549,16.8758491 10.9673716,16.8821528 C9.93345254,16.1651969 9.26935202,15.2596616 9.00674656,14.1093095 C8.74580246,12.9662527 8.91847303,11.8792916 9.52298614,10.8431496 C12.0929976,13.7332131 15.3263342,15.3241505 19.2814759,15.5848681 C19.2509438,15.3126409 19.2139509,15.074482 19.1989987,14.8350481 C19.1040428,13.311114 19.6736674,12.0421959 20.8753098,11.0620433 C21.9751294,10.164972 23.2741643,9.84907933 24.6999056,10.0656712 C25.6932875,10.2165701 26.5506963,10.6407233 27.2590259,11.3311187 C27.3350054,11.4051693 27.4072191,11.4254261 27.520413,11.4014863 C28.4629573,11.2024243 29.3554024,10.8799801 30.1973421,10.4279207 C30.2390976,10.4055037 30.2839912,10.3885758 30.3595277,10.3546846 C30.1990035,10.8857172 29.9324108,11.3299855 29.6023542,11.7387335 C29.2703408,12.1498898 28.8671106,12.4922367 28.419319,12.7952386 C29.3071861,12.7345745 30.1391946,12.4761233 31,12.1417091 C30.6168168,12.6919715 30.2175738,13.1647126 29.7518395,13.5814642 C29.442716,13.8581182 29.1144315,14.1153299 28.7895436,14.3753393 C28.6971351,14.4493191 28.6518723,14.5238301 28.6569671,14.6445917 C28.7120873,15.9576356 28.5383461,17.247448 28.171555,18.5097082 C27.8639821,19.5682673 27.4487162,20.5924748 26.852916,21.5339907 C26.4428926,22.1818894 26.0003435,22.8152683 25.5198047,23.4164913 C24.9620311,24.1143591 24.2971922,24.7203984 23.5794852,25.2725377 C22.7454461,25.9142035 21.8439928,26.4467942 20.872024,26.8704162 C19.7410078,27.3633079 18.5572342,27.6804046 17.3290101,27.857262 C16.2772222,28.0087275 15.2220747,28.031357 14.1641952,27.9640351 C13.042778,27.8927113 11.9419985,27.6955618 10.8889554,27.3198195 C10.1548194,27.0578623 9.44401622,26.7338599 8.73051796,26.4213316 C8.47533323,26.3095651 8.24285375,26.1501314 8,26.0124064 C10.5446849,26.2043856 12.8391323,25.6014627 14.8700143,24.1025308 Z" id="Fill-1"></path>
                </g>
            </g>
        </g>
    </g>
</svg>